Import Onset HOBO Logger Data into R
…
The second component returns a three (3) column data frame with information about the logger and sampling event.

dat.1$details
#> # A tibble: 21 x 3
#>    FileName            Details           Value                         
#>    <chr>               <chr>             <chr>                         
#>  1 2010_h01st_prcp.csv Battery at Launch Unknown                       
#>  2 2010_h01st_prcp.csv Deployment Number 10                            
#>  3 2010_h01st_prcp.csv Device Memory     32768                         
#>  4 2010_h01st_prcp.csv First Sample Time 05/06/09 11:04:53 AM GMT-06:00
#>  5 2010_h01st_prcp.csv Full Series Name  Events                        
#>  6 2010_h01st_prcp.csv Last Sample Time  04/08/10 06:20:45 PM GMT-06:00
#>  7 2010_h01st_prcp.csv Launch Name       H1 Square Tower               
#>  8 2010_h01st_prcp.csv Launch Time       05/06/09 11:04:53 AM GMT-06:00
#>  9 2010_h01st_prcp.csv Product           H07 Logger                    
#> 10 2010_h01st_prcp.csv Samples           1                             
#> # ... with 11 more rows
…
Summarize Data

The that we have data read into R are either event data for precipitation or recorded at set intervals through out the day for temperature and relative humidity data. Let’s summarize them up to daily values.

Precipitation (Event) Data with raindance()

The precipitation loggers record an event every time the bucket inside the rain gauge fills with 0.254 mm of water and tips to trigger an event. The data recorded is simply an event (e.g., event 1, event 2, event 3, and so on). The raindance() function calculates hourly precipitation, provides the number of tips per hour, and provides an estimate of intensity with maximum tips per minute in a given hour. This function requires the data_raw component from import_hobo() or import_hobo_2008() functions and returns a data frame of hourly data.

raindance(dat.1$data_raw)
#> # A tibble: 8,100 x 6
#> # Groups:   PlotID, DateTime [8,100]
#>    PlotID DateTime            Element PRCP_mm  Tips MaxTips_min
#>    <chr>  <dttm>              <chr>     <dbl> <dbl>       <dbl>
#>  1 H01    2009-05-06 01:00:00 PRCP          0     0           0
#>  2 H01    2009-05-06 02:00:00 PRCP          0     0           0
#>  3 H01    2009-05-06 03:00:00 PRCP          0     0           0
#>  4 H01    2009-05-06 04:00:00 PRCP          0     0           0
#>  5 H01    2009-05-06 05:00:00 PRCP          0     0           0
#>  6 H01    2009-05-06 06:00:00 PRCP          0     0           0
#>  7 H01    2009-05-06 07:00:00 PRCP          0     0           0
#>  8 H01    2009-05-06 08:00:00 PRCP          0     0           0
#>  9 H01    2009-05-06 09:00:00 PRCP          0     0           0
#> 10 H01    2009-05-06 10:00:00 PRCP          0     0           0
#> # ... with 8,090 more rows

Temperature and Relative Humidity Data with sundance()

Temperature and relative humidity loggers record data at set intervals through out the day. The sundance() function summarizes these data to the daily data, providing mean, minimum, maximum, and the number of measurements (n) for a given day. This function also returns the time that the minimum and maximum were recorded. This function requires the data_raw component from import_hobo() or import_hobo_2008() functions and returns a data frame of daily data.

sundance(dat.6$data_raw)
#> # A tibble: 776 x 10
#> # Groups:   PlotID, Date, Element [776]
#>    PlotID Date       Element  Mean    Min     Max     n MinTime MaxTime Units
#>    <chr>  <date>     <chr>   <dbl>  <dbl>   <dbl> <int> <chr>   <chr>   <chr>
#>  1 A03    2001-01-20 RH      90.6   80.3   96.8      48 15:00   07:00   %RH  
#>  2 A03    2001-01-20 TEMP    -8.18 -15.3   -3.01     48 05:00   15:30   F    
#>  3 A03    2001-02-20 RH      94.2   86.2   98.2      48 14:30   00:00   %RH  
#>  4 A03    2001-02-20 TEMP    -4.78  -6.20  -2.33     48 00:00   16:30   F    
#>  5 A03    2001-03-20 RH      92.3   76.3   97.5      48 15:00   04:00   %RH  
#>  6 A03    2001-03-20 TEMP    -5.98 -12.4   -0.591    48 23:30   15:30   F    
#>  7 A03    2001-04-20 RH      96.2   84.7   99.7      48 14:30   23:30   %RH  
#>  8 A03    2001-04-20 TEMP    -5.75 -12.6   -2.04     48 00:30   14:00   F    
#>  9 A03    2001-05-20 RH      98.3   95.2  100        48 15:30   01:00   %RH  
#> 10 A03    2001-05-20 TEMP    -5.46  -6.80  -3.81     48 08:30   12:30   F    
#> # ... with 766 more rows
…
  print(basename(this_file))
  print(data.class(dat)); print(names(dat))
  dat$data
})
#> [1] "2010_h01st_temp.csv"
#> [1] "list"
#> [1] "file_info" "details"   "data_raw"  "data"     
#> [1] "2012_i01gp_prcp.csv"
#> [1] "list"
#> [1] "file_info" "details"   "data_raw"  "data"     
#> [1] "2012_i01gp_temp.csv"
#> [1] "list"
#> [1] "file_info" "details"   "data_raw"  "data"
#> [[1]]
#> # A tibble: 338 x 10
#> # Groups:   PlotID, Date, Element [338]
#>    PlotID Date       Element  Mean   Min   Max     n MinTime MaxTime Units
#>    <chr>  <date>     <chr>   <dbl> <dbl> <dbl> <int> <chr>   <chr>   <chr>
#>  1 H01    2009-05-06 TEMP     76.4  53.9  86.6    11 11:11   03:59   F    
#>  2 H01    2009-05-07 TEMP     67.8  42.5  88.0    20 06:23   03:59   F    
#>  3 H01    2009-05-08 TEMP     67.1  45.4  83.0    20 06:23   03:59   F    
#>  4 H01    2009-05-09 TEMP     67.3  46.1  83.7    20 06:23   03:59   F    
#>  5 H01    2009-05-10 TEMP     67.1  46.1  85.8    20 06:23   03:59   F    
#>  6 H01    2009-05-11 TEMP     67.9  45.4  88.0    20 06:23   03:59   F    
#>  7 H01    2009-05-12 TEMP     70.0  46.8  88.0    20 06:23   03:59   F    
#>  8 H01    2009-05-13 TEMP     67.0  46.1  85.1    20 06:23   03:59   F    
#>  9 H01    2009-05-14 TEMP     65.6  41.0  85.1    20 06:23   05:11   F    
#> 10 H01    2009-05-15 TEMP     68.3  48.2  85.1    20 05:11   05:11   F    
#> # ... with 328 more rows
#> 
#> [[2]]
#> # A tibble: 8,988 x 6
#> # Groups:   PlotID, DateTime [8,988]
#>    PlotID DateTime            Element PRCP_mm  Tips MaxTips_min
#>    <chr>  <dttm>              <chr>     <dbl> <dbl>       <dbl>
#>  1 I01    2011-04-18 01:00:00 PRCP      0         0           0
#>  2 I01    2011-04-18 02:00:00 PRCP      0         0           0
#>  3 I01    2011-04-18 03:00:00 PRCP      0         0           0
#>  4 I01    2011-04-18 04:00:00 PRCP      0         0           0
#>  5 I01    2011-04-18 05:00:00 PRCP      0         0           0
#>  6 I01    2011-04-18 06:00:00 PRCP      2.29      8           2
#>  7 I01    2011-04-18 07:00:00 PRCP      4.32     17           1
#>  8 I01    2011-04-18 08:00:00 PRCP      2.79     11           1
#>  9 I01    2011-04-18 09:00:00 PRCP      0.508     2           1
#> 10 I01    2011-04-18 10:00:00 PRCP      0         0           0
#> # ... with 8,978 more rows
#> 
#> [[3]]
#> # A tibble: 398 x 10
#> # Groups:   PlotID, Date, Element [398]
#>    PlotID Date       Element  Mean   Min   Max     n MinTime MaxTime Units
#>    <chr>  <date>     <chr>   <dbl> <dbl> <dbl> <int> <chr>   <chr>   <chr>
#>  1 I01    2011-04-06 TEMP     48.7  41.0  71.8    11 10:22   11:34   F    
#>  2 I01    2011-04-07 TEMP     47.9  38.0  59.4    20 05:34   03:10   F    
#>  3 I01    2011-04-08 TEMP     45.0  30.9  53.2    20 10:22   11:34   F    
#>  4 I01    2011-04-09 TEMP     40.0  31.7  47.5    20 10:22   03:10   F    
#>  5 I01    2011-04-10 TEMP     37.5  13.0  54.6    20 05:34   03:10   F    
#>  6 I01    2011-04-11 TEMP     40.1  16.9  63.5    20 05:34   03:10   F    
#>  7 I01    2011-04-12 TEMP     46.8  23.3  67.7    20 12:46   03:10   F    
#>  8 I01    2011-04-13 TEMP     50.3  25.1  67.7    20 05:34   03:10   F    
#>  9 I01    2011-04-14 TEMP     43.8  34.9  56.7    20 05:34   03:10   F    
#> 10 I01    2011-04-15 TEMP     40.2  14.0  62.2    20 05:34   04:22   F    
#> # ... with 388 more rows
…
